3 Text Analytics with R: Topic Modelling | AI4PH: Text Analyses with R Tutorial and Data Challenge
…
3.2.1.1 Word-topic probabilities

The tidytext package has method for extracting the per-topic-per-word probabilities, the beta, from the two-topic model.

lda_topics <-tidy(tweet_lda2,matrix="beta")
lda_topics
## # A tibble: 33,456 x 3
##    topic term           beta
##    <int> <chr>         <dbl>
##  1     1 agree     0.000325 
##  2     2 agree     0.000263 
##  3     1 also      0.000972 
##  4     2 also      0.00179  
##  5     1 don’t     0.00136  
##  6     2 don’t     0.00153  
##  7     1 everyone  0.00114  
##  8     2 everyone  0.00104  
##  9     1 isolating 0.0000790
## 10     2 isolating 0.000117 
## # ... with 33,446 more rows

lda_topics4 <-tidy(tweet_lda4,matrix="beta")
lda_topics4
## # A tibble: 387,516 x 3
##    topic term            beta
##    <int> <chr>          <dbl>
##  1     1 a way      2.07e-  5
##  2     2 a way      5.74e-  5
##  3     3 a way      8.99e-  5
##  4     4 a way      2.19e-  4
##  5     1 agree that 7.87e-197
##  6     2 agree that 4.57e-  5
##  7     3 agree that 1.93e- 10
##  8     4 agree that 6.92e-  5
##  9     1 also be    2.12e-  5
## 10     2 also be    1.59e-201
## # ... with 387,506 more rows
…
3.2.1.2 Document-topic probabilities

LDA models each document as a mix of topics and words. With matrix = "gamma", we can investigate per-document-per-topic probabilities.

lda_documents <- tidy(tweet_lda2, matrix = "gamma")
lda_documents
## # A tibble: 25,616 x 3
##    document topic gamma
##    <chr>    <int> <dbl>
##  1 18           1 0.512
##  2 30           1 0.512
##  3 31           1 0.510
##  4 38           1 0.500
##  5 47           1 0.514
##  6 57           1 0.507
##  7 95           1 0.520
##  8 100          1 0.501
##  9 163          1 0.475
## 10 175          1 0.490
## # ... with 25,606 more rows
…
